[{  "headline": "Departments & Functions", 
		"body": "A catalog of departments, functions, and other organizational groupings of associates at PepsiCo:  who they are, what they do, and how to work with them." 
  },
	{ "headline": "Departments & Functions", 
		"body": "A catalog of departments, functions, and other organizational groupings of associates at PepsiCo:  who they are, what they do, and how to work with them." 
	},
	{ "headline": "Departamentos y funciones", 
		"body": "Un catálogo de departamentos, funciones y otros grupos organizativos de asociados en PepsiCo: quienes son, qué hacen y cómo trabajar con ellos." 
	},
	{ "headline": "Policies", 
		"body": "The Policies catalog aims to collect the major policies that govern PepsiCo operations and provide a framework for our actions. It allows users to find policies in a single location, whether they are global or at the sector, function or country level. The catalog isn’t comprehensive yet so if you don’t find what you are looking for you may want to check the Policies page in MyPepsiCo.com." 
	},
	{ "headline": "Policies", 
		"body": "The Policies catalog aims to collect the major policies that govern PepsiCo operations and provide a framework for our actions. It allows users to find policies in a single location, whether they are global or at the sector, function or country level. The catalog isn’t comprehensive yet so if you don’t find what you are looking for you may want to check the Policies page in MyPepsiCo.com." 
	},
	{ "headline": "Políticas", 
		"body": "El catálogo Políticas pretende recolectar las principales políticas que rigen las operaciones de PepsiCo y brindan un marco para nuestras acciones. Permite a los usuarios encontrar políticas en una única ubicación, sean usuarios globales o a nivel de sector, función o país. El catálogo aún no está completo, de modo que si no encuentras lo que buscas, quizás te convenga revisar la página Políticas en MyPepsiCo.com." 
	},
	{ "headline": "Projects & Programs", 
		"body": "The Projects & Programs catalog is a collection of major program initiatives going on at PepsiCo and the projects that enable them. Each project or program in the catalog has at least one page that explains all about it: what its objectives are, who it effects, etc" 
	},
	{ "headline": "Projects & Programs", 
		"body": "The Projects & Programs catalog is a collection of major program initiatives going on at PepsiCo and the projects that enable them. Each project or program in the catalog has at least one page that explains all about it: what its objectives are, who it effects, etc" 
	},
	{ "headline": "Proyectos y programas", 
		"body": "El catálogo Proyectos y programas es una colección de importantes iniciativas de programas que tienen lugar en PepsiCo y de los proyectos que permiten su realización. Cada proyecto o programa en el catálogo tiene por lo menos una página que explica todo sobre los mismos: cuáles son sus objetivos, a quién afectan, etc." 
	},
	{  "headline": "Systems & Applications", 
		"body": "The Systems & Applications catalog is a collection of internal systems, applications and other official tools available for use by PepsiCo associates for everything from file sharing to booking travel. Each tool in the catalog has at least one page that explains all about it: what it does, when to use it, how to access it, how to get support, etc." 
  },
	{ "headline": "Systems & Applications", 
		"body": "The Systems & Applications catalog is a collection of internal systems, applications and other official tools available for use by PepsiCo associates for everything from file sharing to booking travel. Each tool in the catalog has at least one page that explains all about it: what it does, when to use it, how to access it, how to get support, etc." 
	},
	{ "headline": "系统与应用", 
		"body": "系统与应用目录收集了百事公司员工从分享文件到预订差旅行程等所有事务时可以使用的内部系统、应用和其他官方工具。目录中的每个工具都至少有一页说明该工具的相关信息：其用途是什么，何时使用，如何找到该工具，如何获得支持等等。" 
	}
]